…
## Predict words with probabilities

```{r}
predict(fpred, "i love") # data.frame, table
#> # A tibble: 1,009 x 2
#>    completion probability
#>    <chr>            <dbl>
#>  1 you             0.222 
#>  2 it              0.0573
#>  3 my              0.0549
#>  4 the             0.0524
#>  5 your            0.0312
#>  6 this            0.0312
#>  7 that            0.0287
#>  8 how             0.0249
#>  9 u               0.0175
#> 10 when            0.0150
#> # … with 999 more rows
```
…
